Nov 23, 2020 9:16:15 PM org.sokoban.GameModel.GameLogger info
INFO: 23/11/2020 21:14:04 -- Loading save file: debugGame.skb
Nov 23, 2020 9:17:53 PM org.sokoban.GameModel.GameLogger info
INFO: 23/11/2020 21:16:15 -- Loading save file: debugGame.skb
